{
  "incidents": [
    {
      "id": 5,
      "status": "closed",
      "title": "<p data-sourcepos=\"1:1-1:8\" dir=\"auto\"><gl-emoji title=\"smiling face with open mouth\" data-name=\"smiley\" data-unicode-version=\"6.0\">\uD83D\uDE03</gl-emoji></p>",
      "description": "",
      "updated_at": "2020-02-21T07:10:46.097Z",
      "created_at": "2020-02-21T07:05:38.261Z",
      "links": {
        "details": "data/incident/3.json"
      }
    },
    {
      "id": 4,
      "status": "closed",
      "title": "<p data-sourcepos=\"1:1-1:8\" dir=\"auto\"><gl-emoji title=\"smiling face with open mouth\" data-name=\"smiley\" data-unicode-version=\"6.0\">\uD83D\uDE03</gl-emoji></p>",
      "description": "",
      "updated_at": "2020-02-21T07:10:46.097Z",
      "created_at": "2020-02-21T07:05:38.261Z",
      "links": {
        "details": "data/incident/3.json"
      }
    },
    {
      "id": 3,
      "status": "closed",
      "title": "<p data-sourcepos=\"1:1-1:8\" dir=\"auto\"><gl-emoji title=\"smiling face with open mouth\" data-name=\"smiley\" data-unicode-version=\"6.0\">\uD83D\uDE03</gl-emoji></p>",
      "description": "",
      "updated_at": "2020-02-21T07:10:46.097Z",
      "created_at": "2020-02-21T07:05:38.261Z",
      "links": {
        "details": "data/incident/3.json"
      }
    },
    {
      "id": 2,
      "status": "closed",
      "title": "<gl-emoji title=\"microphone\" data-name=\"microphone\" data-unicode-version=\"6.0\">\uD83C\uDFA4</gl-emoji> Incident",
      "description": "\u003ch4 data-sourcepos=\"1:1-1:12\" dir=\"auto\"\u003e\n\u003ca id=\"user-content-summary\" class=\"anchor\" href=\"#summary\" aria-hidden=\"true\"\u003e\u003c/a\u003eSummary\u003c/h4\u003e\n\u003cp data-sourcepos=\"3:1-4:27\" dir=\"auto\"\u003e\u003cstrong\u003eStart time:\u003c/strong\u003e 2020-02-18T06:14:39+00:00\u003cbr\u003e\n\u003cstrong\u003efull_query:\u003c/strong\u003e \u003ccode\u003evector(1)\u003c/code\u003e\u003c/p\u003e\n\u003ch4 data-sourcepos=\"6:1-6:18\" dir=\"auto\"\u003e\n\u003ca id=\"user-content-alert-details\" class=\"anchor\" href=\"#alert-details\" aria-hidden=\"true\"\u003e\u003c/a\u003eAlert Details\u003c/h4\u003e\n\u003cp data-sourcepos=\"8:1-9:66\" dir=\"auto\"\u003e\u003cstrong\u003edescription:\u003c/strong\u003e Alertmanager is seeing errors for integration\u003cbr\u003e\n\u003cstrong\u003erunbook:\u003c/strong\u003e troubleshooting/alertmanager-notification-failures.md\u003c/p\u003e\n\u003chr data-sourcepos=\"11:1-12:0\"\u003e\n\u003ch3 data-sourcepos=\"13:1-13:18\" dir=\"auto\"\u003e\n\u003ca id=\"user-content-issue-template\" class=\"anchor\" href=\"#issue-template\" aria-hidden=\"true\"\u003e\u003c/a\u003eIssue template\u003c/h3\u003e\n\u003cp data-sourcepos=\"15:1-15:55\" dir=\"auto\"\u003eBrought to you by \u003ccode\u003e.gitlab/issue_templates/incident.md\u003c/code\u003e\u003c/p\u003e",
      "updated_at": "2020-03-08T00:13:00.406Z",
      "created_at": "2020-02-21T07:04:49.297Z",
      "links": {
        "details": "data/incident/2.json"
      }
    },
    {
      "id": 1,
      "status": "closed",
      "title": "Gitaly is down on server001",
      "description": "\u003ch4 data-sourcepos=\"1:1-1:12\" dir=\"auto\"\u003e\n\u003ca id=\"user-content-summary\" class=\"anchor\" href=\"#summary\" aria-hidden=\"true\"\u003e\u003c/a\u003eSummary\u003c/h4\u003e\n\u003cp data-sourcepos=\"3:1-4:27\" dir=\"auto\"\u003e\u003cstrong\u003eStart time:\u003c/strong\u003e 2020-02-18T06:14:38+00:00\u003cbr\u003e\n\u003cstrong\u003efull_query:\u003c/strong\u003e \u003ccode\u003evector(1)\u003c/code\u003e\u003c/p\u003e\n\u003ch4 data-sourcepos=\"6:1-6:18\" dir=\"auto\"\u003e\n\u003ca id=\"user-content-alert-details\" class=\"anchor\" href=\"#alert-details\" aria-hidden=\"true\"\u003e\u003c/a\u003eAlert Details\u003c/h4\u003e\n\u003cp data-sourcepos=\"8:1-9:43\" dir=\"auto\"\u003e\u003cstrong\u003edescription:\u003c/strong\u003e Annotation \u003cstrong\u003edescription\u003c/strong\u003e\u003cbr\u003e\n\u003cstrong\u003erunbook:\u003c/strong\u003e troubleshooting/gitaly-down.md\u003c/p\u003e",
      "updated_at": "2020-02-21T07:04:05.333Z",
      "created_at": "2020-02-21T07:04:05.333Z",
      "links": {
        "details": "data/incident/1.json"
      }
    }
  ]
}
